Case Study 2
…
Numerical_long <- gather(Numerical, key="variable", value="value",-c(ID,Attrition))

stat.test <- Numerical_long %>%
  group_by(variable) %>%
  t_test(value ~ Attrition) %>%
  adjust_pvalue(method = "BH") %>%
  add_significance()

#Sort and display numerical variables with highest significant difference by Attrition
stat.test <- stat.test %>% select(p, everything())
stat.test <- stat.test[order(stat.test$p),] 
stat.test

## # A tibble: 24 x 11
##          p variable .y.   group1 group2    n1    n2 statistic    df   p.adj
##      <dbl> <chr>    <chr> <chr>  <chr>  <int> <int>     <dbl> <dbl>   <dbl>
##  1 1.16e-8 logMont… value No     Yes      730   140      5.96  196. 2.14e-7
##  2 1.78e-8 logTota… value No     Yes      730   140      5.91  170. 2.14e-7
##  3 3.22e-7 logYear… value No     Yes      730   140      5.29  198. 2.42e-6
##  4 4.04e-7 JobLevel value No     Yes      730   140      5.23  212. 2.42e-6
##  5 2.00e-6 JobInvo… value No     Yes      730   140      4.92  176. 9.60e-6
##  6 5.08e-6 YearsWi… value No     Yes      730   140      4.68  210. 2.03e-5
##  7 3.86e-5 StockOp… value No     Yes      730   140      4.22  188. 1.32e-4
##  8 5.05e-5 Age      value No     Yes      730   140      4.15  185. 1.52e-4
##  9 2.56e-4 YearsAt… value No     Yes      730   140      3.73  192. 6.83e-4
## 10 1.50e-3 JobSati… value No     Yes      730   140      3.22  198. 3.60e-3
## # … with 14 more rows, and 1 more variable: p.adj.signif <chr>
…
Numerical3 <- DDS %>% select(-DDS_categorical,-JobRoleBin,-Over18,-StandardHours,-EmployeeCount,JobRole)

Numerical3_long <- gather(Numerical3, key="variable", value="value",-c(ID,JobRole))

stat.test3 <- Numerical3_long %>%
  group_by(variable) %>%
  t_test(value ~ JobRole) %>%
  adjust_pvalue(method = "BH") %>%
  add_significance()

stat.test3 <- stat.test3 %>% select(p, everything())
stat.test3 <- stat.test3[order(stat.test3$p),] 
stat.test3

## # A tibble: 864 x 11
##           p variable .y.   group1 group2    n1    n2 statistic    df    p.adj
##       <dbl> <chr>    <chr> <chr>  <chr>  <int> <int>     <dbl> <dbl>    <dbl>
##  1 3.88e-73 JobLevel value Resea… Sales…   172   200     -23.1 361.  3.35e-70
##  2 8.03e-65 JobLevel value Sales… Sales…   200    53      25.3 204.  3.47e-62
##  3 1.39e-56 JobLevel value Labor… Sales…   153   200     -19.3 344.  4.00e-54
##  4 2.79e-54 Monthly… value Labor… Sales…   153   200     -19.1 308.  6.03e-52
##  5 1.06e-53 Monthly… value Sales… Sales…   200    53      20.6 225.  1.83e-51
##  6 1.76e-53 Monthly… value Resea… Sales…   172   200     -18.8 317.  2.53e-51
##  7 1.27e-48 Monthly… value Manag… Sales…    51    53      42.5  64.0 1.57e-46
##  8 8.25e-46 Monthly… value Manag… Resea…    51   172      41.6  59.7 8.91e-44
##  9 1.21e-45 Monthly… value Labor… Manag…   153    51     -41.8  59.2 1.16e-43
## 10 1.51e-44 Monthly… value Manag… Manuf…    51    87      22.4 119.  1.30e-42
## # … with 854 more rows, and 1 more variable: p.adj.signif <chr>
…
